Crossover ANOVA
…
          Análisis del diseño cruzado AB, BA con ANOVA

            Vamos a realizar un análisis de la varianza para diseños cruzados
            con dos niveles de factor (bien subtitulado/mal subtitulado) para la
            pregunta 18 del test que es una valoración general del subtitulado.
            Empezaremos realizando una preparación de los datos y
            especificaremos distintos modelos con complejidad creciente.

              Preparación de datos

            TODO: Comentar y poner en bonito la tabla

test_df

# A tibble: 174 × 24
     Row Group Test   User LastTry               Q01   Q02   Q03   Q04   Q05
   <dbl> <chr> <chr> <dbl> <dttm>              <dbl> <dbl> <dbl> <dbl> <dbl>
 1     5 A     01        4 2022-04-13 14:21:55     2     2     2     2     2
 2     4 A     02        4 2022-04-13 14:23:38     2     2     2     2     2
 3    47 B     01       33 2022-04-28 07:52:08     3     3     3     3     1
 4    27 B     02       33 2022-04-28 08:00:20     3     3     3     3     3
 5    85 A     01       35 2022-04-14 02:53:36     4     4     4     4     4
 6    49 A     02       35 2022-04-14 02:58:19     4     3     4     4     3
 7    23 A     01       38 2022-04-15 14:19:38     4     4     4     4     4
 8    15 A     02       38 2022-04-15 14:28:36     0     4     4     4     0
 9    68 A     01       59 2022-04-18 19:12:43     4     4     4     4     4
10    37 A     02       59 2022-04-18 19:22:01     3     2     3     3     1
# … with 164 more rows, and 14 more variables: Q06 <dbl>, Q07 <dbl>, Q08 <dbl>,
#   Q09 <dbl>, Q10 <dbl>, Q11 <dbl>, Q12 <dbl>, Q13 <dbl>, Q14 <dbl>,
#   Q15 <dbl>, Q16 <dbl>, Q17 <dbl>, Q18 <dbl>, Rows <int>
…
              0 = No sé / No constesto

              1 = Muy en desacuerdo

              2 = En desacuerdo

              3 = Neutral

              4 = De acuerdo

              5 = Muy de acuerdo

            Finalmente la tabla se pasará a formato largo.

# A tibble: 3,132 × 6
   Group Period Treat Subject Item Response
   <fct> <fct>  <fct> <fct>   <chr>       <dbl>
 1 AB    1      A     4       Q01             3
 2 AB    1      A     4       Q02             3
 3 AB    1      A     4       Q03             3
 4 AB    1      A     4       Q04             3
 5 AB    1      A     4       Q05             3
 6 AB    1      A     4       Q06             3
 7 AB    1      A     4       Q07             3
 8 AB    1      A     4       Q08             3
 9 AB    1      A     4       Q09             3
10 AB    1      A     4       Q10             3
# … with 3,122 more rows
…
